{
  "name": "The Bastion Initiative",
  "author": "Ithirahad",
  "description": "A structure defense and faction gameplay implementation built on top of Resources ReSourced.",
  "version": "0.1.10a - de Vauban",
  "starmade_version": "0.203.106",
  "client_mod": false,
  "server_mod": false,
  "main_class": "org.ithirahad.bastioninitiative.BastionInitiative",
  "smd_resource_id": 8462,
  "dependencies": [
    -1,8292
  ],
  "core_mod": false,
  "requires_class_resize": false
}
